[gd_scene load_steps=3 format=2]

[ext_resource path="res://util/empty.png" type="Texture" id=1]
[ext_resource path="res://base/menu/crafting/SpellTokenDisplay.cs" type="Script" id=2]

[node name="SpellTokenDisplay" type="TextureRect"]
margin_right = 14.0
margin_bottom = 14.0
rect_min_size = Vector2( 64, 64 )
texture = ExtResource( 1 )
expand = true
script = ExtResource( 2 )
__meta__ = {
"_edit_use_anchors_": false
}
