[gd_scene load_steps=3 format=2]

[ext_resource path="res://content/spells/mushroom_mod/Mushroom.SporeParticle.png" type="Texture" id=1]

[sub_resource type="ParticlesMaterial" id=1]
flag_disable_z = true
spread = 180.0
initial_velocity = 96.3
orbit_velocity = 0.0
orbit_velocity_random = 0.0

[node name="Node2D" type="Node2D"]

[node name="Particles2D" type="Particles2D" parent="."]
z_index = 5
amount = 15
explosiveness = 0.97
process_material = SubResource( 1 )
texture = ExtResource( 1 )
